<?xml version="1.0" standalone="no"?>
<!DOCTYPE svg PUBLIC "-//W3C//DTD SVG 1.1//EN" "http://www.w3.org/Graphics/SVG/1.1/DTD/svg11.dtd">
<svg xmlns="http://www.w3.org/2000/svg">
<metadata>Copyright (C) 2014 by original authors @ fontello.com</metadata>
<defs>
<font id="fontello" horiz-adv-x="1000" >
<font-face font-family="fontello" font-weight="400" font-stretch="normal" units-per-em="1000" ascent="850" descent="-150" />
<missing-glyph horiz-adv-x="1000" />
<glyph glyph-name="trash" unicode="&#x64;" d="m286 439v-321q0-8-5-13t-13-5h-36q-8 0-13 5t-5 13v321q0 8 5 13t13 5h36q8 0 13-5t5-13z m143 0v-321q0-8-5-13t-13-5h-36q-8 0-13 5t-5 13v321q0 8 5 13t13 5h36q8 0 13-5t5-13z m142 0v-321q0-8-5-13t-12-5h-36q-8 0-13 5t-5 13v321q0 8 5 13t13 5h36q7 0 12-5t5-13z m72-404v529h-500v-529q0-12 4-22t8-15 6-5h464q2 0 6 5t8 15 4 22z m-375 601h250l-27 65q-4 5-9 6h-177q-6-1-10-6z m518-18v-36q0-8-5-13t-13-5h-54v-529q0-46-26-80t-63-34h-464q-37 0-63 33t-27 79v531h-53q-8 0-13 5t-5 13v36q0 8 5 13t13 5h172l39 93q9 21 31 35t44 15h178q22 0 44-15t30-35l39-93h173q8 0 13-5t5-13z" horiz-adv-x="785.7" />
<glyph glyph-name="facebook-circled" unicode="&#x66;" d="m480 830q200 0 340-140t140-340q0-198-140-339t-340-141-340 141-140 339q0 200 140 340t340 140z m114-330l0 78-72 0q-44 0-74-33t-30-81l0-44-76 0 0-74 76 0 0-222 86 0 0 222 90 0 0 74-90 0 0 52q0 28 18 28l72 0z" horiz-adv-x="960" />
<glyph glyph-name="gplus-circled" unicode="&#x67;" d="m434 486q8-30-1-57t-31-33l-10 0q-42 0-60 60-6 30 2 54 10 24 30 30 2 2 10 2 44 0 60-56z m46 344q200 0 340-140t140-340q0-198-140-339t-340-141q-198 0-339 141t-141 339q0 200 141 340t339 140z m-28-686q60 30 60 98 0 44-52 92-26 22-26 32 0 12 20 26 34 34 34 80 0 58-36 78 2 2 10 3t10 1q40 4 40 16l0 4-116 0q-12 0-33-4t-53-32-32-76q0-56 38-80 22-16 56-16l6 0q-4-24 16-50l-2 0q-138 0-138-94 0-40 28-63t49-27 39-4l8 0q40 0 74 16z m254 208l0 48-76 0 0 76-48 0 0-76-76 0 0-48 76 0 0-76 48 0 0 76 76 0z m-314-58q32 0 52-17t22-43-19-44-55-20q-34-4-60 11t-28 41q0 26 22 48 20 20 58 24l8 0z" horiz-adv-x="960" />
<glyph glyph-name="left" unicode="&#x6c;" d="m0 350l586 391 0-211 414 0 0-360-414 0 0-211z" horiz-adv-x="1000" />
<glyph glyph-name="paypal" unicode="&#x70;" d="m771 610l8-4q38-22 60-62 20-38 20-96 0-130-110-210-106-80-306-80l-30 0q-16 0-32-12t-20-28l-36-156q-12-42-52-42l-106 0q-18 0-28 13t-6 29l6 24 68 0q16 0 32 13t20 29l36 156q10 40 52 40l30 0q196 0 306 80 110 82 110 210 0 56-22 96z m-580-516q-2-16-18-29t-32-13l-108 0q-18 0-27 13t-5 29l150 646q10 40 52 40l224 0q78 0 126-8 56-12 94-34 36-24 58-62 20-38 20-96 0-130-110-210-106-80-304-80l-32 0q-16 0-32-12t-18-28z m88 374q-4-16 6-28t26-12l28 0q86 0 134 36 48 34 48 98 0 44-30 64-32 20-94 20l-34 0q-42 0-52-40z" horiz-adv-x="859" />
<glyph glyph-name="twitter-circled" unicode="&#x74;" d="m480 830q200 0 340-140t140-340q0-198-140-339t-340-141q-198 0-339 141t-141 339q0 200 141 340t339 140z m196-392q30 22 46 48-32-12-54-14 30 18 42 52-30-16-60-22-28 28-70 28-40 0-67-28t-27-66q0-2 1-10t1-12q-120 6-194 100-14-24-14-48 0-50 44-78-26 0-44 12l0-2q0-34 21-60t55-32q-16-4-24-4-12 0-18 2 20-66 88-66-50-40-118-40l-22 0q68-42 144-42 122 0 196 83t74 187l0 12z" horiz-adv-x="960" />
<glyph glyph-name="user" unicode="&#xe800;" d="m353 351q139 0 237-99t98-236q0-47-33-80t-79-33l-446 0q-46 0-79 33t-33 80q0 138 98 236t237 99z m-167 279q0 167 167 167 168 0 168-167 0-168-168-168-167 0-167 168z" horiz-adv-x="705" />
<glyph glyph-name="print" unicode="&#xe801;" d="m866 564c40 0 75-35 75-78l0-366c0-42-35-77-75-77l-76 0 34-153-691 0 27 153-82 0c-45 0-78 35-78 77l0 366c0 43 33 78 78 78l96 0 0 117 34 0 0 129 527 0 0-129 34 0 0-117 97 0z m-623 199l0-292 457 0 0 292-457 0z m-113-389c30 0 55 24 55 54 0 28-25 53-55 53-29 0-54-25-54-53 0-30 25-54 54-54z m63-438l567 0-47 242-484 0z m252 113l-139 0 0 35 139 0 0-35z m198 0l-139 0 0 35 139 0 0-35z" horiz-adv-x="941" />
<glyph glyph-name="undo" unicode="&#xe802;" d="m804 694q107-107 107-262 0-150-107-257l-84-84-79 80 84 84q74 74 74 177 0 108-74 183-72 72-180 72t-180-72l-153-155 141 0 0-109-335 0 0 334 112 0 0-147 156 156q103 103 259 103t259-103z m-271-791l-79 79 79 81 79-81z" horiz-adv-x="928" />
<glyph glyph-name="floppy" unicode="&#xe803;" d="m658 750l142-156 0-544q0-40-29-70t-71-30l-600 0q-40 0-70 30t-30 70l0 600q0 42 30 71t70 29l558 0z m-58-300l0 250-400 0 0-250q0-20 15-35t35-15l300 0q20 0 35 15t15 35z m-50 200l0-200-100 0 0 200 100 0z" horiz-adv-x="800" />
<glyph glyph-name="search" unicode="&#xe804;" d="m772 78q30-34 6-62l-46-46q-36-32-68 0l-190 190q-74-42-156-42-128 0-223 95t-95 223 90 219 218 91 224-95 96-223q0-88-46-162z m-678 358q0-88 68-156t156-68 151 63 63 153q0 88-68 155t-156 67-151-63-63-151z" horiz-adv-x="789" />
</font>
</defs>
</svg>